{
  "cards" : [ {
    "Damage" : 2,
    "Id" : "HU01",
    "ImageUrl" : "https://pre00.deviantart.net/1661/th/pre/i/2011/117/f/2/footman_by_cristi_b-d3f0t52.jpg",
    "Name" : "Footman",
    "Type" : "MELEE"
  }, {
    "Damage" : 4,
    "Id" : "HU02",
    "ImageUrl" : "https://i.pinimg.com/originals/71/92/b9/7192b9ecefea2762ae5afc82f6c42027.jpg",
    "Name" : "Calvary",
    "Type" : "MELEE"
  }, {
    "Damage" : 3,
    "Id" : "HU03",
    "ImageUrl" : "https://ru.charscrolls.com/data/character/4206.jpg",
    "Name" : "Hunter",
    "Type" : "RANGED"
  }, {
    "Damage" : 3,
    "Id" : "HU04",
    "ImageUrl" : "http://kingunderthemounta.in/wp-content/uploads/2017/01/wizard.png",
    "Name" : "Arcane Mage",
    "Type" : "MAGIC"
  }, {
    "Damage" : 8,
    "Id" : "HU05",
    "ImageUrl" : "https://vignette.wikia.nocookie.net/wowwiki/images/a/aa/Jaina_Proudmoore_%28New%29.jpg/revision/latest?cb=20130315233213",
    "IsHero" : true,
    "Name" : "Jaina Proudmoore",
    "Type" : "MAGIC"
  }, {
    "Damage" : 10,
    "Id" : "HU06",
    "ImageUrl" : "https://d1u5p3l4wpay3k.cloudfront.net/wowpedia/thumb/e/ee/Uther_TCG.jpg/300px-Uther_TCG.jpg?version=501ed887f33619cf53e06921f398b855",
    "IsHero" : true,
    "Name" : "Uther the Lightbringer",
    "Type" : "MELEE"
  }, {
    "Damage" : 5,
    "Id" : "HU07",
    "ImageUrl" : "https://img00.deviantart.net/89be/i/2017/207/e/8/sorceress_by_victter_le_fou-dbhrnq9.jpg",
    "Name" : "Sorceress",
    "Type" : "MAGIC"
  }, {
    "Damage" : 0,
    "Id" : "HU08",
    "ImageUrl" : "https://i.pinimg.com/736x/27/b6/63/27b66378a0155e35c99b7c3774add18f--fantasy-heroes-fantasy-rpg.jpg",
    "Name" : "Priest",
    "Type" : "MAGIC"
  }, {
    "Damage" : 2,
    "Id" : "OR01",
    "ImageUrl" : "https://cdna.artstation.com/p/assets/covers/images/001/171/886/large/maurice-risulmi-orc.jpg?1441541810",
    "Name" : "Grunt",
    "Type" : "MELEE"
  }, {
    "Damage" : 3,
    "Id" : "OR02",
    "ImageUrl" : "https://static1.squarespace.com/static/52bf4762e4b0171d9d785d34/t/52c1ff73e4b0c7e76795f5ab/1388445556762/OrcRaider.jpg",
    "Name" : "Raider",
    "Type" : "MELEE"
  }, {
    "Damage" : 6,
    "Id" : "OR03",
    "ImageUrl" : "https://vignette.wikia.nocookie.net/warhammerfb/images/5/5f/Cc851eb4f3fedb2f318c0b4d4cb86d80.jpg/revision/latest?cb=20150807000210",
    "Name" : "Trebuchet",
    "Type" : "RANGED"
  }, {
    "Damage" : 10,
    "Id" : "OR04",
    "ImageUrl" : "https://i.pinimg.com/736x/2d/e3/a1/2de3a1e85d8bc1376a3ca1aac2f8cf83--warcraft-art-world-of-warcraft.jpg",
    "IsHero" : true,
    "Name" : "Grom Hellscream",
    "Type" : "MELEE"
  }, {
    "Damage" : 5,
    "Id" : "OR05",
    "ImageUrl" : "https://images.wallpaperscraft.com/image/warlock_demnok_lannik_dota_2_art_94246_180x300.jpg",
    "Name" : "Warclock",
    "Type" : "MAGIC"
  }, {
    "Damage" : 4,
    "Id" : "OR06",
    "ImageUrl" : "https://i.pinimg.com/736x/72/16/09/7216096f75f913807aaa51e79c71581e--character-concept-concept-art.jpg",
    "Name" : "Axethrower",
    "Type" : "RANGED"
  }, {
    "Damage" : 3,
    "Id" : "OR07",
    "ImageUrl" : "https://i.pinimg.com/originals/9d/81/74/9d81749b50dcebd36633dc32e4c1e13c.jpg",
    "Name" : "Shaman",
    "Type" : "MAGIC"
  }, {
    "Damage" : 10,
    "Id" : "OR08",
    "ImageUrl" : "https://pre00.deviantart.net/d753/th/pre/f/2011/327/a/0/orgrim_doomhammer_by_vaejoun-d4h1nrm.jpg",
    "IsHero" : true,
    "Name" : "Orgrim Doomhammer",
    "Type" : "MELEE"
  } ],
  "matches" : {
    "120afg4a5g48" : {
      "CardsInDeck" : [ [ "HU01", "HU02", "HU01", "HU08", "HU03", "HU03", "HU04", "HU07" ], [ "OR01", "OR05", "OR06", "OR03", "OR02", "OR03", "OR07", "OR01" ] ],
      "CardsOnBoard" : [ [ {
        "Type" : "MELEE"
      }, {
        "Type" : "RANGED"
      }, {
        "Type" : "MAGIC"
      } ], [ {
        "Cards" : [ "OR01" ],
        "Type" : "MELEE"
      }, {
        "Type" : "RANGED"
      }, {
        "Type" : "MAGIC"
      } ] ],
      "CurrentRound" : 1,
      "CurrentTurn" : "001",
      "DrawedCards" : [ [ "HU01", "HU02", "HU01", "HU05", "HU08", "HU03", "HU03", "HU04", "HU06", "HU07" ], [ "OR01", "OR05", "OR06", "OR03", "OR02", "OR03", "OR07", "OR04", "OR01", "OR08" ] ],
      "FirstTurn" : "001",
      "HasPassed" : [ false, true ],
      "Id" : "000001",
      "Players" : [ {
        "Id" : "001",
        "ImageUrl" : "http://thuthuatphanmem.vn/uploads/2018/04/10/avatar-doi-dep-2_015655466.jpg",
        "Name" : "Wavin"
      }, {
        "Id" : "002",
        "ImageUrl" : "https://upload.wikimedia.org/wikipedia/commons/thumb/e/e8/CandymyloveYasu.png/220px-CandymyloveYasu.png",
        "Name" : "Pyenim"
      } ]
    }
  },
  "players" : {
    "105226495732650166495" : {
      "Email" : "leonguyen112@gmail.com",
      "Id" : "105226495732650166495",
      "ImageUrl" : "https://lh4.googleusercontent.com/-fybuUSuO7go/AAAAAAAAAAI/AAAAAAAAASA/YPS9beho_4I/s96-c/photo.jpg",
      "Name" : "Quang Vinh Nguyễn Ngọc"
    },
    "111017764195992629410" : {
      "Email" : "nnqvinh112@gmail.com",
      "Id" : "111017764195992629410",
      "ImageUrl" : "https://lh6.googleusercontent.com/-m1lUfyIHpMc/AAAAAAAAAAI/AAAAAAAAAAc/VBepl6WFMmg/s96-c/photo.jpg",
      "Name" : "Wavin Origin"
    },
    "113742245799425893059" : {
      "Id" : "113742245799425893059",
      "ImageUrl" : "https://lh6.googleusercontent.com/-BQcuPT3fJr8/AAAAAAAAAAI/AAAAAAAAAAA/AAnnY7qLidf-ku8P8egFR7e77dHbJkU8rQ/s96-c/photo.jpg",
      "Name" : "Nguyễn Ngọc Quang Vinh"
    }
  }
}
